﻿{
  "configurations": [
    {
      "name": "x64-Debug",
      "generator": "Ninja",
      "configurationType": "Debug",
      "inheritEnvironments": [ "msvc_x64_x64" ],
      "buildRoot": "${projectDir}\\out\\build\\${name}",
      "installRoot": "${projectDir}\\out\\install\\${name}",
      "cmakeCommandArgs": "",
      "buildCommandArgs": "",
      "ctestCommandArgs": "",
      "variables": [
        {
          "name": "ASSIMP_ROOT_DIR",
          "value": "C:/libs/Assimp/",
          "type": "PATH"
        },
        {
          "name": "ASSIMP_INCLUDE_DIR",
          "value": "C:/libs/Assimp/include",
          "type": "PATH"
        },
        {
          "name": "EIGEN3_INCLUDE_DIR",
          "value": "C:/libs/eigen/eigen-3.3.7",
          "type": "PATH"
        },
        {
          "name": "PYTHON_EXECUTABLE",
          "value": "C:/Program Files/Python38/python.exe",
          "type": "FILEPATH"
        },
        {
          "name": "pybind11_DIR",
          "value": "C:/libs/pybind11",
          "type": "PATH"
        },
        {
          "name": "ASSIMP_LIBRARY_DIR",
          "value": "C:/libs/Assimp/lib",
          "type": "PATH"
        }
      ]
    },
    {
      "name": "x64-Release",
      "generator": "Ninja",
      "configurationType": "Release",
      "buildRoot": "${projectDir}\\out\\build\\${name}",
      "installRoot": "${projectDir}\\out\\install\\${name}",
      "cmakeCommandArgs": "-DPYTHON_EXECUTABLE=\"C:\\\\Program Files\\\\Python37\\\\python.exe\" -DEIGEN3_INCLUDE_DIR=\"C:\\\\Program Files\\\\eigen\\\\eigen-3.3.7\"",
      "buildCommandArgs": "",
      "ctestCommandArgs": "",
      "inheritEnvironments": [ "msvc_x64_x64" ],
      "variables": []
    }
  ]
}